Name,WeightClassKg,Division,Best3SquatKg,Best3BenchKg,Best3DeadliftKg,TotalKg,Sex,Event,Equipment,Place,State
Taylor Gregg #1,56,F-Jr,70.31,58.97,99.79,229.06,F,SBD,Single-ply,1,
Dylon Daniels,67.5,M-M1,113.4,65.77,163.29,342.46,M,SBD,Single-ply,1,
Hans Hubbard,82.5,M-M2,,83.91,183.7,,M,SBD,Single-ply,DQ,
Gary Turner,110,M-M2,136.08,149.69,165.56,451.32,M,SBD,Single-ply,1,
Axel Svenson,125,M-M3,,,165.56,,M,SBD,Single-ply,DQ,
