Division,WeightClassKg,Place,Name,Team,BodyweightKg,Best3SquatKg,Best3BenchKg,Best3DeadliftKg,TotalKg,Equipment,Event,Sex
Boys,51.71,1,Dustin Richardson,Lake Worth,51.62,117.93,61.23,170.1,349.27,Single-ply,SBD,M
Boys,51.71,2,Chris Fehlman,McGregor,51.53,124.74,68.04,138.35,331.12,Single-ply,SBD,M
Boys,51.71,3,Pablo Avalos,West,46.22,108.86,63.5,122.47,294.84,Single-ply,SBD,M
Boys,51.71,4,Austin Mueller,China Spring,51.44,108.86,54.43,129.27,292.57,Single-ply,SBD,M
Boys,51.71,5,Jeremy Alaniz,Riesel,51.35,113.4,58.97,113.4,285.76,Single-ply,SBD,M
Boys,51.71,6,Travis Lacina,Crawford,49.71,106.59,54.43,111.13,272.16,Single-ply,SBD,M
Boys,51.71,7,Mike Lundberg,West,49.44,90.72,49.9,97.52,238.14,Single-ply,SBD,M
Boys,51.71,8,Colton Frazier,Riesel,51.26,88.45,43.09,97.52,229.06,Single-ply,SBD,M
Boys,51.71,9,Sean Murphy,Bosqueville,50.71,65.77,34.02,90.72,190.51,Single-ply,SBD,M
Boys,51.71,DQ,Josh Price,Moody,48.9,,,,,Single-ply,SBD,M
Boys,55.79,1,Colton Russell,Bosqueville,55.34,154.22,77.11,158.76,390.09,Single-ply,SBD,M
Boys,55.79,2,Dane Rodriguez,Chilton,55.16,140.61,72.57,149.69,362.87,Single-ply,SBD,M
Boys,55.79,3,Tristan Zamarripa,Lake Worth,54.88,122.47,74.84,145.15,342.46,Single-ply,SBD,M
Boys,55.79,4,Tanner Blackwell,Gatesville,55.25,127.01,74.84,136.08,337.93,Single-ply,SBD,M
Boys,55.79,5,Jesse Berry #1,Crawford,54.7,136.08,70.31,120.2,326.59,Single-ply,SBD,M
Boys,55.79,6,Brad Gravitt,China Spring,55.7,122.47,68.04,136.08,326.59,Single-ply,SBD,M
Boys,55.79,7,Bill Nebors,Waco La Vega,55.52,117.93,70.31,136.08,324.32,Single-ply,SBD,M
Boys,55.79,8,DeVante Graves,Chilton,53.07,117.93,58.97,140.61,317.51,Single-ply,SBD,M
Boys,55.79,9,Tanner Dodd,Robinson,52.62,95.25,72.57,117.93,285.76,Single-ply,SBD,M
Boys,55.79,10,Curtis Evans,Riesel,55.52,122.47,52.16,95.25,269.89,Single-ply,SBD,M
Boys,67.13,1,Luis Juarez,Bosqueville,60.06,147.42,83.91,174.63,405.97,Single-ply,SBD,M
Boys,67.13,2,Austin Gilbert,Whitney,59.96,122.47,68.04,149.69,340.19,Single-ply,SBD,M
Boys,59.87,3,Jose Rodriguez,Lake Worth,56.61,122.47,72.57,136.08,331.12,Single-ply,SBD,M
Boys,67.13,4,Dawson Lochridge,Whitney,60.06,120.2,61.23,124.74,306.17,Single-ply,SBD,M
Boys,59.87,5,Keith Langford,Riesel,58.24,124.74,49.9,122.47,297.1,Single-ply,SBD,M
Boys,59.87,6,Josh Price,Crawford,57.52,95.25,56.7,113.4,265.35,Single-ply,SBD,M
Boys,67.13,1,Jong Hoon Lim,Gatesville,66.22,163.29,102.06,195.04,460.4,Single-ply,SBD,M
Boys,67.13,2,Derek Bonner,Whitney,65.41,181.44,102.06,167.83,451.32,Single-ply,SBD,M
Boys,67.13,3,Zach Beyer,Bosqueville,65.68,172.37,86.18,172.37,430.91,Single-ply,SBD,M
Boys,67.13,4,Uriel Medina,Lake Worth,66.32,151.95,92.99,158.76,403.7,Single-ply,SBD,M
Boys,67.13,5,Brett Boles,McGregor,66.86,161.03,79.38,158.76,399.16,Single-ply,SBD,M
Boys,67.13,6,Vincent Bell,Chilton,66.95,158.76,72.57,163.29,394.63,Single-ply,SBD,M
Boys,67.13,7,Brandon Even,Moody,65.5,154.22,72.57,163.29,390.09,Single-ply,SBD,M
Boys,67.13,8,Jordan Wright,Meridian,61.69,170.1,72.57,136.08,378.75,Single-ply,SBD,M
Boys,67.13,9,Steven Foster,Riesel,60.42,147.42,70.31,158.76,376.48,Single-ply,SBD,M
Boys,67.13,10,Lane Fikes,Robinson,63.32,131.54,81.65,163.29,376.48,Single-ply,SBD,M
Boys,67.13,11,Jess Godwin,Meridian,66.41,122.47,74.84,154.22,351.53,Single-ply,SBD,M
Boys,67.13,12,Brady Baker,Riesel,65.59,140.61,63.5,140.61,344.73,Single-ply,SBD,M
Boys,67.13,13,Josh Paynter,Riesel,61.51,131.54,63.5,145.15,340.19,Single-ply,SBD,M
Boys,67.13,14,Nick Scocchio,Whitney,61.05,136.08,61.23,129.27,326.59,Single-ply,SBD,M
Boys,67.13,15,Daniel Sonney,Moody,66.95,113.4,68.04,129.27,310.71,Single-ply,SBD,M
Boys,67.13,16,Jacob Mitchell,Robinson,63.59,117.93,74.84,113.4,306.17,Single-ply,SBD,M
Boys,67.13,17,Lucas Ramsey,Meridian,63.32,99.79,61.23,111.13,272.16,Single-ply,SBD,M
Boys,67.13,18,Dakota Hollingsworth,Moody,63.78,79.38,49.9,122.47,251.74,Single-ply,SBD,M
Boys,67.13,DQ,Chase McGehee,Gatesville,65.41,165.56,,,,Single-ply,SBD,M
Boys,67.13,DQ,Valentino White,Chilton,62.78,102.06,,,,Single-ply,SBD,M
Boys,67.13,DQ,Jonathan Moore,Crawford,67.04,151.95,,,,Single-ply,SBD,M
Boys,67.13,DQ,Jacob Fischer,Robinson,66.59,149.69,,,,Single-ply,SBD,M
Boys,74.84,1,Tyrell Irby,Waco La Vega,68.22,235.87,145.15,260.82,641.83,Single-ply,SBD,M
Boys,74.84,2,Jordan Taylor #1,Waco La Vega,72.3,219.99,127.01,265.35,612.35,Single-ply,SBD,M
Boys,74.84,3,Travis Cooke,China Spring,72.12,201.85,127.01,206.38,535.24,Single-ply,SBD,M
Boys,74.84,4,Matthew Maley,Crawford,69.4,201.85,115.67,208.65,526.17,Single-ply,SBD,M
Boys,74.84,5,Jeremy Seay,Meridian,73.3,204.12,115.67,192.78,512.56,Single-ply,SBD,M
Boys,74.84,6,Garrison Dean,Crawford,72.39,192.78,108.86,208.65,510.29,Single-ply,SBD,M
Boys,74.84,7,Chris Sosebee,Whitney,68.49,190.51,124.74,192.78,508.02,Single-ply,SBD,M
Boys,74.84,8,Tyler Johnson,Robinson,73.94,190.51,104.33,195.04,489.88,Single-ply,SBD,M
Boys,74.84,9,Jose Hernandez #20,China Spring,74.12,172.37,117.93,192.78,483.08,Single-ply,SBD,M
Boys,74.84,10,Ramiro Fraire,West,69.4,172.37,86.18,170.1,428.64,Single-ply,SBD,M
Boys,74.84,11,Reed Thomas,Whitney,73.84,170.1,95.25,158.76,424.11,Single-ply,SBD,M
Boys,74.84,12,Kadale Kolar,West,71.99,158.76,95.25,165.56,419.57,Single-ply,SBD,M
Boys,74.84,13,Matt Karl,Chilton,73.3,158.76,79.38,181.44,419.57,Single-ply,SBD,M
Boys,74.84,14,Johnathan Snider,McGregor,70.49,154.22,90.72,156.49,401.43,Single-ply,SBD,M
Boys,74.84,15,Greg Roberts,Lake Worth,71.4,154.22,77.11,170.1,401.43,Single-ply,SBD,M
Boys,74.84,16,Braxton Skipper,McGregor,70.58,113.4,77.11,149.69,340.19,Single-ply,SBD,M
Boys,74.84,17,Jacob Fedler,McGregor,71.85,120.2,63.5,154.22,337.93,Single-ply,SBD,M
Boys,74.84,18,Wesley Stanford,Riesel,70.49,127.01,68.04,136.08,331.12,Single-ply,SBD,M
Boys,82.1,19,Clay Mitchell,Robinson,74.93,108.86,72.57,127.01,308.44,Single-ply,SBD,M
Boys,82.1,1,Hunter Fritscher,Crawford,76.57,229.06,113.4,206.38,548.85,Single-ply,SBD,M
Boys,82.1,2,Brody Jones,Crawford,78.2,217.72,117.93,181.44,517.1,Single-ply,SBD,M
Boys,82.1,3,Ferrin DeHerrera,China Spring,80.29,197.31,111.13,199.58,508.02,Single-ply,SBD,M
Boys,82.1,4,Kohl Gueringer,Robinson,82.1,192.78,115.67,199.58,508.02,Single-ply,SBD,M
Boys,82.1,5,Daniel Stanley,China Spring,79.2,172.37,122.47,204.12,498.95,Single-ply,SBD,M
Boys,82.1,6,Gerald Horne,Waco La Vega,82.01,183.7,122.47,192.78,498.95,Single-ply,SBD,M
Boys,82.1,7,Dustin McLearen,Gatesville,79.65,167.83,117.93,185.97,471.74,Single-ply,SBD,M
Boys,82.1,8,Chris Kunkel,West,81.37,174.63,99.79,195.04,469.47,Single-ply,SBD,M
Boys,82.1,9,Payton Wynn,Lake Worth,78.02,179.17,95.25,192.78,467.2,Single-ply,SBD,M
Boys,82.1,10,Chris Olsen,Crawford,80.29,165.56,115.67,185.97,467.2,Single-ply,SBD,M
Boys,82.1,11,Ryan Welch,Whitney,81.65,163.29,106.59,190.51,460.4,Single-ply,SBD,M
Boys,82.1,12,Felipe Gallegos,Lake Worth,77.2,149.69,92.99,197.31,439.98,Single-ply,SBD,M
Boys,82.1,13,Matthew Davis #5,Robinson,79.56,167.83,83.91,181.44,433.18,Single-ply,SBD,M
Boys,82.1,14,Kyle Dean,Moody,76.75,154.22,102.06,165.56,421.84,Single-ply,SBD,M
Boys,82.1,15,Preston Parsons,Moody,78.2,154.22,97.52,163.29,415.04,Single-ply,SBD,M
Boys,82.1,16,Kameron Smith,Chilton,81.92,147.42,90.72,127.01,365.14,Single-ply,SBD,M
Boys,82.1,17,Jacob Trevino,Moody,79.38,142.88,72.57,145.15,360.61,Single-ply,SBD,M
Boys,82.1,18,Aaron Towns,Riesel,80.83,127.01,88.45,131.54,347,Single-ply,SBD,M
Boys,82.1,19,Brannan Love,Meridian,82.01,113.4,68.04,113.4,294.84,Single-ply,SBD,M
Boys,82.1,DQ,Chance Heiser,Lake Worth,81.65,181.44,104.33,,,Single-ply,SBD,M
Boys,89.81,1,Dustin Westerfield,Waco La Vega,88.54,229.06,129.27,190.51,548.85,Single-ply,SBD,M
Boys,89.81,2,Brandon Castillo,West,85.77,222.26,117.93,190.51,530.7,Single-ply,SBD,M
Boys,89.81,3,Cedric Carter,Chilton,88.99,204.12,120.2,199.58,523.9,Single-ply,SBD,M
Boys,89.81,4,Trent Munden,China Spring,89.54,183.7,115.67,199.58,498.95,Single-ply,SBD,M
Boys,89.81,5,Seth Pomykal,Chilton,88.54,172.37,86.18,185.97,444.52,Single-ply,SBD,M
Boys,89.81,6,Matt Gerik,West,88.13,181.44,95.25,165.56,442.25,Single-ply,SBD,M
Boys,89.81,7,Richard Mills,Riesel,84.73,140.61,81.65,133.81,356.07,Single-ply,SBD,M
Boys,99.79,1,Jacob McNamara,Moody,95.53,263.08,149.69,208.65,621.42,Single-ply,SBD,M
Boys,99.79,2,Spencer Heflin,Lake Worth,95.16,226.8,138.35,231.33,596.47,Single-ply,SBD,M
Boys,99.79,3,Patrick Martin,China Spring,97.34,226.8,151.95,210.92,589.67,Single-ply,SBD,M
Boys,99.79,4,Josh Carroll,Waco La Vega,97.61,206.38,111.13,217.72,535.24,Single-ply,SBD,M
Boys,99.79,5,Jeff Weir,Waco La Vega,97.43,206.38,117.93,206.38,530.7,Single-ply,SBD,M
Boys,99.79,6,Shaq Walker,Waco La Vega,94.26,204.12,99.79,195.04,498.95,Single-ply,SBD,M
Boys,99.79,7,Andrew Hill,McGregor,95.25,204.12,131.54,163.29,498.95,Single-ply,SBD,M
Boys,99.79,8,John Almanza,Bosqueville,95.07,204.12,108.86,165.56,478.54,Single-ply,SBD,M
Boys,99.79,9,Addison Schmalreide,Crawford,91.99,181.44,95.25,188.24,464.93,Single-ply,SBD,M
Boys,99.79,10,Cyle Hickey,Crawford,97.79,181.44,88.45,195.04,464.93,Single-ply,SBD,M
Boys,99.79,11,Justin Rhyne,Gatesville,95.71,167.83,113.4,154.22,435.45,Single-ply,SBD,M
Boys,99.79,12,Bobby Reed,Gatesville,93.26,136.08,86.18,172.37,394.63,Single-ply,SBD,M
Boys,99.79,13,Undra Smith,West,94.8,145.15,79.38,136.08,360.61,Single-ply,SBD,M
Boys,109.77,1,Trevor Gardner,Lake Worth,106.23,235.87,142.88,231.33,610.08,Single-ply,SBD,M
Boys,109.77,2,Ki Walker,Waco La Vega,109.32,235.87,142.88,213.19,591.94,Single-ply,SBD,M
Boys,109.77,3,Colton Ridley,Gatesville,107.95,231.33,149.69,192.78,573.79,Single-ply,SBD,M
Boys,109.77,4,Shurdon Simpson,Chilton,108.86,256.28,133.81,181.44,571.53,Single-ply,SBD,M
Boys,109.77,5,Jacob Lockhart,China Spring,108.86,219.99,133.81,190.51,544.31,Single-ply,SBD,M
Boys,109.77,6,Peter Wimberly,China Spring,106.41,204.12,127.01,204.12,535.24,Single-ply,SBD,M
Boys,109.77,7,Taylor Gibbs,China Spring,103.51,167.83,122.47,181.44,471.74,Single-ply,SBD,M
Boys,109.77,8,Trent Smith,Robinson,104.24,158.76,108.86,190.51,458.13,Single-ply,SBD,M
Boys,109.77,9,Zak Hudspeth,Gatesville,104.6,181.44,86.18,183.7,451.32,Single-ply,SBD,M
Boys,109.77,10,Taylor Jackson #4,West,107.95,170.1,97.52,167.83,435.45,Single-ply,SBD,M
Boys,124.74,1,Scotty Shartle,Meridian,119.29,256.28,156.49,240.4,653.17,Single-ply,SBD,M
Boys,124.74,2,Adam Rodriguez,Chilton,123.38,281.23,154.22,215.46,650.91,Single-ply,SBD,M
Boys,124.74,3,Joseph Holder,West,118.61,251.74,156.49,206.38,614.62,Single-ply,SBD,M
Boys,124.74,4,Carlton Hollister,Riesel,114.21,199.58,165.56,204.12,569.26,Single-ply,SBD,M
Boys,124.74,5,Jesse Wilson,Whitney,122.56,204.12,129.27,204.12,537.51,Single-ply,SBD,M
Boys,124.74,6,Collin Sorrell,Gatesville,122.11,195.04,108.86,217.72,521.63,Single-ply,SBD,M
Boys,124.74,7,Jason Bobo,Chilton,122.29,204.12,83.91,181.44,469.47,Single-ply,SBD,M
Boys,124.74,8,Hayden Brown,Robinson,117.66,163.29,99.79,167.83,430.91,Single-ply,SBD,M
Boys,124.74,DQ,Trent Andrews,Bosqueville,115.67,231.33,,,,Single-ply,SBD,M
Boys,124.74+,1,Jesus Pinon,Meridian,136.71,285.76,199.58,263.08,748.43,Single-ply,SBD,M
Boys,124.74+,2,Tyler Klander,West,125.24,278.96,163.29,254.01,696.26,Single-ply,SBD,M
Boys,124.74+,3,Augie Hinojosa,Whitney,132.9,249.48,149.69,226.8,625.96,Single-ply,SBD,M
Boys,124.74+,4,Dwight Holder,Waco La Vega,125.65,251.74,129.27,199.58,580.6,Single-ply,SBD,M
Boys,124.74+,5,Tanner Finley,Whitney,143.43,208.65,172.37,176.9,557.92,Single-ply,SBD,M
Boys,124.74+,6,Mike Stevenson,Bosqueville,129.09,197.31,104.33,176.9,478.54,Single-ply,SBD,M
Boys,124.74+,7,Kyle Donaldson,Bosqueville,129,149.69,102.06,172.37,424.11,Single-ply,SBD,M
