Name,WeightClassKg,Division,AgeRange,Sex,Event,Country,Best3BenchKg,Bench4Kg,Best3DeadliftKg,Deadlift4Kg,TotalKg,Equipment,Place,Age
M. VanZee,67.5,Special Olympics,,M,D,USA,,,120,,120,Single-ply,1,
L. Nelson,75,Special Olympics,,M,D,Canada,,,60,,60,Single-ply,2,
K. Luce,75,Special Olympics,,M,D,USA,,,75,,75,Single-ply,1,
David Anderson #6,82.5,Special Olympics,,M,D,USA,,,177.5,,177.5,Single-ply,1,
J. Leighton,90,Special Olympics,,M,D,USA,,,100,,100,Single-ply,1,
J. Wood,100,Special Olympics,,M,D,USA,,,190,,190,Single-ply,1,
B. Adams,125,Special Olympics,,M,D,USA,,,125,,125,Single-ply,1,
C. Chittick,67.5,Juniors 20-23,20-23,M,D,USA,,,165,,165,Single-ply,1,
Andrew Corson,75,Juniors 20-23,20-23,M,D,USA,,,220,,220,Single-ply,1,
Nicholas Lee,82.5,Juniors 20-23,20-23,M,D,USA,,,252.5,,252.5,Single-ply,1,
Steve Manley,82.5,Juniors 20-23,20-23,M,D,USA,,,250,260,250,Single-ply,2,
A. Carrillo,82.5,Juniors 20-23,20-23,M,D,USA,,,247.5,,247.5,Single-ply,3,
Andrew Dexter,90,Juniors 20-23,20-23,M,D,Canada,,,280,,280,Single-ply,1,
Sateel English,100,Juniors 20-23,20-23,M,D,Canada,,,272.5,,272.5,Single-ply,1,
Joel Thiessen,125,Juniors 20-23,20-23,M,D,Canada,,,272.5,,272.5,Single-ply,1,
Joaquin Diaz de Leon,140+,Juniors 20-23,20-23,M,D,USA,,,290,295,290,Single-ply,1,
Murray Cairns,140+,Juniors 20-23,20-23,M,D,Canada,,,205,,205,Single-ply,2,
Vilmar Oliveira,75,Submasters 35-39,35-39,M,D,Brazil,,,200,,200,Single-ply,1,
Joe Costa,90,Submasters 35-39,35-39,M,D,USA,,,277.5,,277.5,Single-ply,1,
Agnar Adalsteinsson,110,Submasters 35-39,35-39,M,D,Iceland,,,282.5,,282.5,Single-ply,1,
Axel Adalsteinsson,125,Submasters 35-39,35-39,M,D,Iceland,,,320,,320,Single-ply,1,
B. Romine,125,Submasters 35-39,35-39,M,D,USA,,,275,,275,Single-ply,2,
S. Adams,125,Submasters 35-39,35-39,M,D,USA,,,272.5,,272.5,Single-ply,3,
John Bellino,140,Submasters 35-39,35-39,M,D,USA,,,252.5,,252.5,Single-ply,1,
D. Vance,110,Teen 14-15,14-15,M,D,USA,,,120,,120,Single-ply,1,
F. Bimbo,52,Teen 16-17,16-17,M,D,Philippines,,,150,,150,Single-ply,1,
Willard Crossen III,67.5,Teen 16-17,16-17,M,D,USA,,,170,,170,Single-ply,1,
Keneke Ward,82.5,Teen 16-17,16-17,M,D,USA,,,185,,185,Single-ply,1,
Barry Kunkel,60,Teen 18-19,18-19,M,D,USA,,,200,,200,Single-ply,1,
Joe Luther,75,Teen 18-19,18-19,M,D,USA,,,227.5,,227.5,Single-ply,1,
J. Jones,82.5,Teen 18-19,18-19,M,D,USA,,,192.5,200,192.5,Single-ply,1,
Alex Vaughn,100,Teen 18-19,18-19,M,D,USA,,,242.5,,242.5,Single-ply,1,
Jeff Holloway,90,Law Masters 40-44,40-44,M,D,USA,,,205,,205,Single-ply,1,
Duane Fuss,110,Law Masters 40-44,40-44,M,D,Canada,,,310,,310,Single-ply,1,
Les Peratrovich,100,Law Masters 45-49,45-49,M,D,USA,,,240,,240,Single-ply,1,
George Brink,140,Law Masters 45-49,45-49,M,D,USA,,,310,,310,Single-ply,1,
Paul Goodwin,140,Law Masters 45-49,45-49,M,D,USA,,,195,,195,Raw,2,
Alfredo Evangelista,60,Masters 40-44,40-44,M,D,USA,,,177.5,,177.5,Single-ply,1,
Leamon Woodley,82.5,Masters 40-44,40-44,M,D,USA,,,295,,295,Single-ply,1,
Andrew Hoyas,82.5,Masters 40-44,40-44,M,D,Colombia,,,45,,45,Single-ply,4,
J. Sumner,82.5,Masters 40-44,40-44,M,D,USA,,,217.5,,217.5,Single-ply,2,
A. Moore,82.5,Masters 40-44,40-44,M,D,USA,,,202.5,,202.5,Single-ply,3,
Gary Ferstler,90,Masters 40-44,40-44,M,D,USA,,,320,,320,Single-ply,1,
David Stratton,90,Masters 40-44,40-44,M,D,USA,,,300,,300,Single-ply,2,
Z. Simpson,90,Masters 40-44,40-44,M,D,USA,,,250,,250,Single-ply,3,
Giorgio Usai,90,Masters 40-44,40-44,M,D,Italy,,,237.5,,237.5,Single-ply,4,
Jeff Holloway,90,Masters 40-44,40-44,M,D,USA,,,205,,205,Single-ply,5,
Duane Fuss,110,Masters 40-44,40-44,M,D,Canada,,,310,,310,Single-ply,1,
Jerry Capello,110,Masters 40-44,40-44,M,D,USA,,,297.5,,297.5,Single-ply,2,
Pat Mallough,125,Masters 40-44,40-44,M,D,Canada,,,320,,320,Single-ply,1,
S. Brown,125,Masters 40-44,40-44,M,D,USA,,,245,,245,Single-ply,2,
Bruce Greig,140,Masters 40-44,40-44,M,D,Canada,,,375,380,375,Single-ply,1,
Keith Ward,140,Masters 40-44,40-44,M,D,USA,,,185,,185,Single-ply,2,
Larry Muth,60,Masters 45-49,45-49,M,D,USA,,,197.5,,197.5,Single-ply,1,
Gordon Olson,82.5,Masters 45-49,45-49,M,D,USA,,,287.5,,287.5,Single-ply,1,
D. Andersen,82.5,Masters 45-49,45-49,M,D,USA,,,230,,230,Single-ply,2,
J. McKenzie,90,Masters 45-49,45-49,M,D,USA,,,230,,230,Single-ply,1,
Les Peratrovich,100,Masters 45-49,45-49,M,D,USA,,,240,,240,Single-ply,1,
Patrick Fay,110,Masters 45-49,45-49,M,D,USA,,,260,,260,Single-ply,1,
Dale McPherson,110,Masters 45-49,45-49,M,D,Canada,,,,,,Single-ply,DQ,
Mike Magruder,125,Masters 45-49,45-49,M,D,USA,,,287.5,,287.5,Single-ply,1,
Odd Haugen,140,Masters 45-49,45-49,M,D,USA,,,320,,320,Single-ply,1,
George Brink,140,Masters 45-49,45-49,M,D,USA,,,310,,310,Single-ply,2,
Bob Benzler,75,Masters 50-54,50-54,M,D,USA,,,195,,195,Single-ply,1,
Gordon Santee,82.5,Masters 50-54,50-54,M,D,USA,,,237.5,245,237.5,Single-ply,1,
D. Livesay,82.5,Masters 50-54,50-54,M,D,USA,,,172.5,,172.5,Single-ply,2,
Onnie Jordan,100,Masters 50-54,50-54,M,D,USA,,,262.5,,262.5,Single-ply,1,
Dave Cheek,100,Masters 50-54,50-54,M,D,USA,,,227.5,,227.5,Single-ply,2,
Gary Miller #5,110,Masters 50-54,50-54,M,D,USA,,,265,267.5,265,Single-ply,1,
Mike Fryar,110,Masters 50-54,50-54,M,D,USA,,,252.5,,252.5,Single-ply,2,
Bobby Dodd,110,Masters 50-54,50-54,M,D,USA,,,205,,205,Single-ply,3,
Joe Kross,125,Masters 50-54,50-54,M,D,USA,,,262.5,,262.5,Single-ply,1,
Donald James,140+,Masters 50-54,50-54,M,D,USA,,,230,232.5,230,Single-ply,1,
Jimmy Young,90,Masters 55-59,55-59,M,D,USA,,,245,,245,Single-ply,1,
Ken Tuten,90,Masters 55-59,55-59,M,D,USA,,,242.5,,242.5,Single-ply,2,
Larry Sandberg,100,Masters 55-59,55-59,M,D,USA,,,260,,260,Single-ply,1,
Robert O. Smith,140,Masters 55-59,55-59,M,D,Canada,,,250,,250,Single-ply,1,
John Green,100,Masters 60-64,60-64,M,D,Canada,,,255,,255,Single-ply,1,
Wilbert Kaimikaua Sr,100,Masters 60-64,60-64,M,D,USA,,,205,210,205,Single-ply,2,
D. Inman,100,Masters 60-64,60-64,M,D,USA,,,175,,175,Single-ply,3,
Charles Lehman,125,Masters 60-64,60-64,M,D,USA,,,195,,195,Single-ply,1,
JP Krachunis,140,Masters 60-64,60-64,M,D,USA,,,137.5,,137.5,Single-ply,1,
Don Frosland Sr,82.5,Masters 65-69,65-69,M,D,USA,,,170,,170,Single-ply,1,
Jim Schall,75,Masters 70-74,70-74,M,D,USA,,,85,,85,Single-ply,1,
H. Wolff,82.5,Masters 70-74,70-74,M,D,USA,,,147.5,,147.5,Single-ply,1,
Bob Woods,100,Masters 70-74,70-74,M,D,USA,,,185,,185,Single-ply,1,73
Dude Rice,110,Masters 70-74,70-74,M,D,USA,,,110,,110,Single-ply,1,
Calvin Davis,125,Masters 70-74,70-74,M,D,USA,,,175,,175,Single-ply,1,
Alfredo Evangelista,60,Open,,M,D,USA,,,167.5,,167.5,Single-ply,1,
Jody Cranston,67.5,Open,,M,D,Canada,,,232.5,,232.5,Single-ply,1,
Richard House,75,Open,,M,D,USA,,,255,,255,Single-ply,1,
Flávio Danna,75,Open,,M,D,Brazil,,,240,,240,Single-ply,2,
Joe Luther,75,Open,,M,D,USA,,,227.5,,227.5,Single-ply,3,
Leamon Woodley,82.5,Open,,M,D,USA,,,295,,295,Single-ply,1,
S. Molnar,82.5,Open,,M,D,Canada,,,250,,250,Single-ply,2,
Evandro Casa Grande,90,Open,,M,D,Brazil,,,270,,270,Single-ply,1,
M. Wechler,90,Open,,M,D,USA,,,267.5,,267.5,Single-ply,2,
Jeff Hoiby,90,Open,,M,D,USA,,,215,,215,Single-ply,3,
A. Jakobsson,90,Open,,M,D,Sweden,,,,,,Single-ply,DQ,
E. Arntzen,100,Open,,M,D,Norway,,,282.5,,282.5,Single-ply,3,
Staudinger,100,Open,,M,D,Canada,,,272.5,,272.5,Single-ply,5,
Ben Snelson,100,Open,,M,D,USA,,,260,,260,Single-ply,7,
Rodney Trewin,100,Open,,M,D,USA,,,260,,260,Single-ply,8,
Matt Crosby,100,Open,,M,D,USA,,,260,,260,Single-ply,9,
R. Estell,100,Open,,M,D,Canada,,,255,,255,Single-ply,10,
Mike Camlin,100,Open,,M,D,USA,,,320,,320,Single-ply,1,
Tomonari Yamanaka,100,Open,,M,D,Japan,,,290,,290,Single-ply,2,
Troy Fryar,100,Open,,M,D,USA,,,275,,275,Single-ply,4,
R. Cuddback,100,Open,,M,D,USA,,,265,,265,Single-ply,6,
C. Godfrey,100,Open,,M,D,Canada,,,210,,210,Single-ply,11,
Grant Higa,125,Open,,M,D,USA,,,310,,310,Single-ply,1,
Joe Fernandez,125,Open,,M,D,Philippines,,,282.5,,282.5,Single-ply,2,
Dean Askanas,125,Open,,M,D,USA,,,277.5,,277.5,Single-ply,3,
Dave Chouinard,125,Open,,M,D,Canada,,,237.5,,237.5,Single-ply,4,
Bruce Greig,140,Open,,M,D,Canada,,,375,380,375,Single-ply,1,
Brent Mikesell,140,Open,,M,D,USA,,,332.5,,332.5,Single-ply,2,
Rick Russell,140,Open,,M,D,USA,,,277.5,,277.5,Single-ply,3,
Tyler Spearin,140,Open,,M,D,Canada,,,270,,270,Single-ply,4,
Dean Munsey,140+,Open,,M,D,USA,,,322.5,,322.5,Single-ply,1,
William Baker,140+,Open,,M,D,Canada,,,272.5,,272.5,Single-ply,2,
Liza Bimbo,48,Teen 14-15,14-15,F,D,USA,,,105,110,105,Single-ply,1,
Arian Pacek,67.5,Teen 16-17,16-17,F,D,USA,,,130,,130,Single-ply,1,
Rosie Yanikyan,82.5,Teen 16-17,16-17,F,D,USA,,,97.5,,97.5,Single-ply,1,
Mary Bimbo,52,Teen 18-19,18-19,F,D,USA,,,85,,85,Single-ply,1,
Joe Bruno,82.5,Teen 18-19,18-19,M,D,USA,,,102.5,,102.5,Single-ply,1,
S. Olson,52,Submasters 35-39,35-39,F,D,USA,,,,,,Single-ply,DQ,
Hazel Greene,60,Submasters 35-39,35-39,F,D,Ireland,,,142.5,,142.5,Single-ply,1,
JoAnn Bauer,67.5,Submasters 35-39,35-39,F,D,USA,,,112.5,,112.5,Single-ply,1,
Patricia Corns,75,Submasters 35-39,35-39,F,D,USA,,,147.5,,147.5,Single-ply,1,
Judith Sverchek,67.5,Masters,40-999,F,D,USA,,,195,,195,Single-ply,1,
L. McKinley,67.5,Masters,40-999,F,D,Canada,,,127.5,,127.5,Single-ply,2,
M. Cahill,90+,Masters,40-999,F,D,Canada,,,132.5,,132.5,Single-ply,1,
Wendy Greig,60,Masters 40-44,40-44,F,D,Canada,,,165,,165,Single-ply,1,
Leslie Miller,90+,Masters 45-49,45-49,F,D,USA,,,150,,150,Single-ply,1,
Patricia Thomas,67.5,Masters 60-64,60-64,F,D,,,,115,,115,Single-ply,1,
Claire Ashton-Heckathorn,82.5,Masters 45-49,45-49,F,D,USA,,,142.5,,142.5,Single-ply,1,
Jo Walker,60,Masters 50-54,50-54,F,D,USA,,,137.5,,137.5,Single-ply,1,
Denise Johnson,60,Masters 45-49,45-49,F,D,USA,,,132.5,137.5,132.5,Single-ply,1,
C. Hatch,52,Masters 40-44,40-44,F,D,USA,,,115,117.5,115,Single-ply,1,
Janey May,60,Masters 45-49,45-49,F,D,USA,,,102.5,,102.5,Single-ply,2,
P. Coons,67.5,Masters 40-44,40-44,F,D,USA,,,112.5,,112.5,Single-ply,1,
Cheri Lerma,56,Masters 45-49,45-49,F,D,USA,,,135,,135,Single-ply,1,
David Young,67.5,Law,,M,B,USA,140,,,,140,Multi-ply,1,
Jason Smith,75,Law,,M,B,USA,128,,,,127.5,Multi-ply,1,
Scott Jones,75,Law,,M,B,USA,127.5,135,,,127.5,Multi-ply,2,
Barry Duran,82.5,Law,,M,B,USA,170,,,,170,Multi-ply,1,
Randy Cardwell,82.5,Law,,M,B,USA,165,,,,165,Multi-ply,2,
Ed Sim,90,Law,,M,B,USA,215,,,,215,Multi-ply,1,
Craig Palmer,90,Law,,M,B,USA,192.5,,,,192.5,Multi-ply,2,
Greg Arrell,100,Law,,M,B,USA,242.5,,,,242.5,Multi-ply,1,
Matt LaMarque,100,Law,,M,B,USA,195,,,,195,Multi-ply,2,
Frank Wakakuwa,110,Law,,M,B,USA,277.5,,,,277.5,Multi-ply,1,
D. Bodenstab,110,Law,,M,B,USA,195,,,,195,Multi-ply,2,
William Minor,140,Law,,M,B,USA,260,,,,260,Multi-ply,1,
Lonny Haywood,140,Law,,M,B,USA,222.5,,,,222.5,Multi-ply,2,
Steve Ward,75,Submasters 35-39,35-39,M,B,USA,177.5,182.5,,,177.5,Multi-ply,1,
Vilmar Oliveira,75,Submasters 35-39,35-39,M,B,Brazil,152.5,,,,152.5,Multi-ply,3,
Arun Sharma,75,Submasters 35-39,35-39,M,B,India,162.5,,,,162.5,Multi-ply,2,
Bill Box,82.5,Submasters 35-39,35-39,M,B,USA,152.5,,,,152.5,Multi-ply,1,
Darris Piggee,90,Submasters 35-39,35-39,M,B,USA,197.5,,,,197.5,Multi-ply,1,
Craig Palmer,90,Submasters 35-39,35-39,M,B,USA,192.5,,,,192.5,Multi-ply,2,
Wendall Omura,90,Submasters 35-39,35-39,M,B,USA,190,,,,190,Multi-ply,3,
Carroll Moon,110,Submasters 35-39,35-39,M,B,USA,232.5,,,,232.5,Multi-ply,1,
Doug Mulder,110,Submasters 35-39,35-39,M,B,USA,200,,,,200,Multi-ply,2,
Mike Spencer,110,Submasters 35-39,35-39,M,B,USA,192.5,,,,192.5,Multi-ply,3,
Todd Christensen,110,Submasters 35-39,35-39,M,B,USA,192.5,,,,192.5,Multi-ply,4,
Bill Gillespie,125,Submasters 35-39,35-39,M,B,USA,255,262.5,,,255,Single-ply,1,
Jim Cunningham,125,Submasters 35-39,35-39,M,B,USA,237.5,,,,237.5,Multi-ply,2,
Axel Adalsteinsson,125,Submasters 35-39,35-39,M,B,Iceland,185,,,,185,Multi-ply,3,
Art Ramsey,140,Submasters 35-39,35-39,M,B,USA,227.5,,,,227.5,Single-ply,1,
Paul Ratsch,140,Submasters 35-39,35-39,M,B,USA,160,,,,160,Multi-ply,2,
Jeff Holloway,90,Law Masters 40-44,40-44,M,B,USA,155,,,,155,Multi-ply,1,
Duane Fuss,110,Law Masters 40-44,40-44,M,B,Canada,212.5,,,,212.5,Multi-ply,1,
Guy Black,110,Law Masters 40-44,40-44,M,B,USA,207.5,,,,207.5,Multi-ply,2,
Steve Roscoe,100,Law Masters 45-49,45-49,M,B,USA,187.5,,,,187.5,Multi-ply,1,
Paul Goodwin,140,Law Masters 45-49,45-49,M,B,USA,172.5,,,,172.5,Raw,1,
Alfredo Evangelista,60,Masters 40-44,40-44,M,B,USA,135,,,,135,Multi-ply,1,
Clyde Higa,67.5,Masters 40-44,40-44,M,B,USA,67.5,,,,67.5,Multi-ply,2,
Sheldon Weingust,67.5,Masters 40-44,40-44,M,B,USA,147.5,,,,147.5,Multi-ply,1,
Robert Avery #2,75,Masters 40-44,40-44,M,B,USA,137.5,,,,137.5,Multi-ply,1,
Byron Beebe,82.5,Masters 40-44,40-44,M,B,USA,212.5,,,,212.5,Multi-ply,1,
Andrew Hoyas,82.5,Masters 40-44,40-44,M,B,Colombia,127.5,,,,127.5,Multi-ply,2,
Jeff Holloway,90,Masters 40-44,40-44,M,B,USA,155,,,,155,Multi-ply,1,
Steve Beaudoin,100,Masters 40-44,40-44,M,B,USA,231,,,,231,Multi-ply,1,
Shawn O'Kelley,100,Masters 40-44,40-44,M,B,USA,222.5,,,,222.5,Multi-ply,2,
S. Sikka,100,Masters 40-44,40-44,M,B,India,140,,,,140,Multi-ply,3,
Shota Bejusrili,110,Masters 40-44,40-44,M,B,Georgia,222.5,,,,222.5,Multi-ply,1,
Willard Crossen Jr,110,Masters 40-44,40-44,M,B,USA,220,,,,220,Multi-ply,2,
Duane Fuss,110,Masters 40-44,40-44,M,B,Canada,212.5,,,,212.5,Multi-ply,3,
Guy Black,110,Masters 40-44,40-44,M,B,USA,207.5,,,,207.5,Multi-ply,4,
Don Frosland Jr,110,Masters 40-44,40-44,M,B,USA,202.5,,,,202.5,Multi-ply,5,
Roger Nelson,110,Masters 40-44,40-44,M,B,USA,197.5,,,,197.5,Multi-ply,6,
McCormack,110,Masters 40-44,40-44,M,B,USA,192.5,,,,192.5,Multi-ply,7,
Pat Mallough,125,Masters 40-44,40-44,M,B,Canada,192.5,,,,192.5,Multi-ply,1,
S. Brown,125,Masters 40-44,40-44,M,B,USA,172.5,,,,172.5,Multi-ply,2,
Keith Ward,140,Masters 40-44,40-44,M,B,USA,160,,,,160,Multi-ply,1,
Leonard McAllister Jr,,Masters 45-49,45-49,M,B,USA,172.5,,,,172.5,Multi-ply,1,
Ashok Sharma,82.5,Masters 45-49,45-49,M,B,India,140,,,,140,Multi-ply,1,
Ray Dohaniuk,90,Masters 45-49,45-49,M,B,USA,212.5,,,,212.5,Multi-ply,1,
Rainer Gessmann,90,Masters 45-49,45-49,M,B,Germany,145,,,,145,Multi-ply,2,
J. McKenzie,100,Masters 45-49,45-49,M,B,Canada,115,,,,115,Multi-ply,1,
Bennie Dooley,110,Masters 45-49,45-49,M,B,USA,205,,,,205,Multi-ply,1,
P. Market,110,Masters 45-49,45-49,M,B,USA,177.5,,,,177.5,Multi-ply,2,
Patrick Fay,110,Masters 45-49,45-49,M,B,USA,172.5,,,,172.5,Multi-ply,3,
Mike Magruder,125,Masters 45-49,45-49,M,B,USA,215,,,,215,Multi-ply,1,
Odd Haugen,140,Masters 45-49,45-49,M,B,Norway,222.5,,,,222.5,Multi-ply,1,
Paul Goodwin,140,Masters 45-49,45-49,M,B,USA,172.5,,,,172.5,Raw,2,
J. Bebe,67.5,Masters 50-54,50-54,M,B,USA,,,,,,Multi-ply,DQ,
Bob Benzler,75,Masters 50-54,50-54,M,B,USA,155,,,,155,Multi-ply,1,
Bob Keynon,82.5,Masters 50-54,50-54,M,B,USA,160,,,,160,Multi-ply,1,
R. Williams,82.5,Masters 50-54,50-54,M,B,USA,127.5,,,,127.5,Multi-ply,2,
Terry Camp,90,Masters 50-54,50-54,M,B,USA,167.5,,,,167.5,Multi-ply,1,
Bill Sekermestrovich,100,Masters 50-54,50-54,M,B,USA,197.5,200,,,197.5,Multi-ply,1,
J. Padgett,100,Masters 50-54,50-54,M,B,USA,177.5,,,,177.5,Multi-ply,2,
T. Padgett,100,Masters 50-54,50-54,M,B,USA,140,,,,140,Multi-ply,3,
George Nelson,110,Masters 50-54,50-54,M,B,USA,242.5,,,,242.5,Multi-ply,1,53
Tom Hennessy,110,Masters 50-54,50-54,M,B,USA,160,,,,160,Multi-ply,2,
Donald James,140+,Masters 50-54,50-54,M,B,USA,205,,,,205,Multi-ply,1,
Wayne Paolo,75,Masters 55-59,55-59,M,B,USA,145,,,,145,Multi-ply,1,
Rodney Brim,90,Masters 55-59,55-59,M,B,USA,150,,,,150,Multi-ply,1,
Jim McCaffery,100,Masters 55-59,55-59,M,B,USA,172.5,,,,172.5,Multi-ply,1,
Dennis Cane,125,Masters 55-59,55-59,M,B,USA,170,,,,170,Multi-ply,1,
B. Isley,125,Masters 55-59,55-59,M,B,USA,152.5,,,,152.5,Multi-ply,2,
Fred Keiser,140,Masters 55-59,55-59,M,B,USA,192.5,197.5,,,192.5,Multi-ply,1,
Robert O. Smith,140,Masters 55-59,55-59,M,B,Canada,187.5,,,,187.5,Single-ply,2,
Donald Barden,82.5,Masters 60-64,60-64,M,B,USA,137.5,,,,137.5,Multi-ply,1,
Harlan Neal,82.5,Masters 60-64,60-64,M,B,USA,120,,,,120,Multi-ply,2,
Gordon Brand,82.5,Masters 60-64,60-64,M,B,USA,107.5,,,,107.5,Multi-ply,3,
Jerry Gladson,90,Masters 60-64,60-64,M,B,USA,100,,,,100,Multi-ply,1,
John Green,100,Masters 60-64,60-64,M,B,USA,122.5,,,,122.5,Multi-ply,1,
Sidney Gendin,100,Masters 60-64,60-64,M,B,USA,97.5,,,,97.5,Multi-ply,2,
William Caldwell,110,Masters 60-64,60-64,M,B,USA,175,177.5,,,175,Multi-ply,1,
Curt Nichols,125,Masters 60-64,60-64,M,B,USA,167.5,,,,167.5,Multi-ply,1,
D. Johnson,125,Masters 60-64,60-64,M,B,USA,160,,,,160,Multi-ply,2,
Charles Lehman,125,Masters 60-64,60-64,M,B,USA,120,,,,120,Multi-ply,3,
JP Krachunis,140,Masters 60-64,60-64,M,B,USA,160,,,,160,Multi-ply,1,
Don Frosland Sr,82.5,Masters 65-69,65-69,M,B,USA,125,,,,125,Multi-ply,1,
Sonny Ronolo,75,Masters 70-74,70-74,M,B,USA,142.5,145,,,142.5,Multi-ply,1,74
Jim Schall,75,Masters 70-74,70-74,M,B,USA,97.5,,,,97.5,Multi-ply,2,
Bryan Christenson,82.5,Masters 70-74,70-74,M,B,USA,122.5,125,,,122.5,Multi-ply,1,
Ed Hashim,90,Masters 70-74,70-74,M,B,USA,130,,,,130,Multi-ply,1,
Bob Woods,100,Masters 70-74,70-74,M,B,USA,125,,,,125,Multi-ply,1,
Dude Rice,110,Masters 70-74,70-74,M,B,USA,72.5,,,,72.5,Multi-ply,1,
Calvin Davis,125,Masters 70-74,70-74,M,B,USA,120,,,,120,Multi-ply,1,
Harrison Benner,67.5,Masters 75-79,75-79,M,B,USA,82.5,87.5,,,82.5,Multi-ply,1,
Hung Pham,52,Juniors 20-23,20-23,M,B,USA,132.5,,,,132.5,Multi-ply,1,
D. Gonzales,52,Juniors 20-23,20-23,M,B,USA,115,,,,115,Multi-ply,2,
Lee Luther,75,Juniors 20-23,20-23,M,B,USA,140,,,,140,Multi-ply,1,
N. Parker,82.5,Juniors 20-23,20-23,M,B,USA,130,,,,130,Multi-ply,1,
Enrique Ramos,90,Juniors 20-23,20-23,M,B,USA,190,,,,190,Multi-ply,1,
Wellhouser,90,Juniors 20-23,20-23,M,B,Canada,170,,,,170,Multi-ply,2,
Andrew Dexter,90,Juniors 20-23,20-23,M,B,Canada,167.5,,,,167.5,Multi-ply,3,
B. Ryan,90,Juniors 20-23,20-23,M,B,USA,165,,,,165,Multi-ply,4,
Austin Slater,90,Juniors 20-23,20-23,M,B,USA,147.5,,,,147.5,Multi-ply,5,
Matt LaMarque,100,Juniors 20-23,20-23,M,B,USA,195,,,,195,Multi-ply,1,
A. Claybo,100,Juniors 20-23,20-23,M,B,Canada,182.5,,,,182.5,Multi-ply,2,
Sateel English,100,Juniors 20-23,20-23,M,B,Canada,165,,,,165,Multi-ply,3,
T. Legg #1,100,Juniors 20-23,20-23,M,B,USA,162.5,,,,162.5,Multi-ply,4,
Ryan Kennelly,110,Juniors 20-23,20-23,M,B,USA,230,,,,230,Multi-ply,1,
Joel Thiessen,125,Juniors 20-23,20-23,M,B,Canada,182.5,,,,182.5,Multi-ply,1,
Joe Chouinard,140,Juniors 20-23,20-23,M,B,USA,227.5,,,,227.5,Multi-ply,1,
Richard Rodriguez,140+,Juniors 20-23,20-23,M,B,USA,220,,,,220,Multi-ply,1,
Joaquin Diaz de Leon,140+,Juniors 20-23,20-23,M,B,USA,210,,,,210,Multi-ply,2,
Mags Shultz,140+,Juniors 20-23,20-23,M,B,Canada,202.5,,,,202.5,Multi-ply,3,
Murray Cairns,140+,Juniors 20-23,20-23,M,B,Canada,137.5,,,,137.5,Multi-ply,4,
Hung Pham,52,Open,,M,B,USA,132.5,,,,132.5,Multi-ply,1,
Kerwin Unten,56,Open,,M,B,USA,157.5,167.5,,,157.5,Multi-ply,1,
Joshua Vaughn,56,Open,,M,B,USA,142.5,,,,142.5,Multi-ply,2,
Alfredo Evangelista,60,Open,,M,B,USA,135,,,,135,Multi-ply,1,
Lance Slaughter,67.5,Open,,M,B,USA,177.5,,,,177.5,Multi-ply,1,
Kimo Luna,67.5,Open,,M,B,USA,160,,,,160,Multi-ply,2,
Wesley Kampen,67.5,Open,,M,B,USA,122.5,,,,122.5,Multi-ply,3,
Michale Hara,75,Open,,M,B,USA,192.5,,,,192.5,Multi-ply,1,
Joe Luther,75,Open,,M,B,USA,185,,,,185,Multi-ply,2,
Jason Yoshimura,75,Open,,M,B,USA,182.5,,,,182.5,Multi-ply,3,
Steve Ward,75,Open,,M,B,USA,177.5,183,,,177.5,Multi-ply,4,
Eric Lumpkin,75,Open,,M,B,USA,167.5,,,,167.5,Multi-ply,5,
Bob Bish,75,Open,,M,B,USA,157.5,,,,157.5,Multi-ply,6,
Vilmar Oliveira,75,Open,,M,B,Brazil,152.5,,,,152.5,Multi-ply,7,
Flávio Danna,75,Open,,M,B,Brazil,140,,,,140,Multi-ply,8,
B. Staip,75,Open,,M,B,USA,117.5,,,,117.5,Multi-ply,9,
Mike Saito,82.5,Open,,M,B,Japan,215,,,,215,Multi-ply,1,
Byron Beebe,82.5,Open,,M,B,USA,212.5,,,,212.5,Multi-ply,2,
Allen Berry,82.5,Open,,M,B,USA,192.5,,,,192.5,Multi-ply,3,
Joe Bruno,82.5,Open,,M,B,USA,177.5,,,,177.5,Multi-ply,4,
S. Molnar,82.5,Open,,M,B,Canada,170,,,,170,Multi-ply,5,
Barry Duran,82.5,Open,,M,B,USA,170,,,,170,Multi-ply,6,
Andre Planchon,82.5,Open,,M,B,France,162.5,,,,162.5,Multi-ply,7,
Lee Rorie,90,Open,,M,B,USA,260,,,,260,Multi-ply,1,
Gustavo Warrington,90,Open,,M,B,USA,235,,,,235,Multi-ply,2,
Jeff Hoiby,90,Open,,M,B,USA,165,,,,165,Multi-ply,3,
R. Paolo,90,Open,,M,B,USA,145,,,,145,Multi-ply,4,
Evandro Casa Grande,90,Open,,M,B,Brazil,130,,,,130,Multi-ply,5,
Greg Arrell,100,Open,,M,B,USA,242.5,,,,242.5,Multi-ply,1,
Steve Beaudoin,100,Open,,M,B,USA,230,,,,230,Multi-ply,2,
Shawn O'Kelley,100,Open,,M,B,USA,222.5,,,,222.5,Multi-ply,3,
Mike Ludovico,100,Open,,M,B,USA,220,,,,220,Multi-ply,4,
D. Brogan,100,Open,,M,B,USA,200,,,,200,Multi-ply,5,
Matt Crosby,100,Open,,M,B,USA,190,,,,190,Multi-ply,6,
T. Singh,100,Open,,M,B,India,155,,,,155,Multi-ply,7,
S. Gosain,100,Open,,M,B,India,125,,,,125,Multi-ply,8,
R. Estell,100,Open,,M,B,Canada,,,,,,Multi-ply,DQ,
Frank Wakakuwa,110,Open,,M,B,USA,277.5,,,,277.5,Multi-ply,1,
Larry Birgado,110,Open,,M,B,USA,242.5,,,,242.5,Multi-ply,2,
George Nelson,110,Open,,M,B,USA,242.5,,,,242.5,Multi-ply,3,53
Ryan Kennelly,110,Open,,M,B,USA,230,232.5,,,230,Multi-ply,4,
J. Heikes,110,Open,,M,B,USA,200,,,,200,Multi-ply,5,
J. Gamer,110,Open,,M,B,USA,192.5,,,,192.5,Multi-ply,6,
Tomonari Yamanaka,110,Open,,M,B,Japan,185,,,,185,Multi-ply,7,
Richardson,110,Open,,M,B,Canada,170,,,,170,Multi-ply,8,
C. Godfrey,110,Open,,M,B,Canada,152.5,,,,152.5,Multi-ply,9,
Bill Gillespie,125,Open,,M,B,USA,255,262.5,,,255,Single-ply,1,
Jeff Markoff,125,Open,,M,B,USA,245,,,,245,Multi-ply,2,
Steve Wong,125,Open,,M,B,USA,245,,,,245,Single-ply,3,
Victor Shaw,125,Open,,M,B,USA,200,,,,200,Multi-ply,4,
Dave Chouinard,125,Open,,M,B,Canada,142.5,,,,142.5,Multi-ply,5,
William Minor,140,Open,,M,B,USA,260,,,,260,Multi-ply,1,
Lonny Haywood,140,Open,,M,B,USA,222.5,,,,222.5,Multi-ply,2,
Tyler Spearin,140,Open,,M,B,Canada,200,,,,200,Multi-ply,3,
Dean Munsey,140,Open,,M,B,USA,195,,,,195,Multi-ply,4,
Rick Russell,140,Open,,M,B,USA,192.5,,,,192.5,Multi-ply,5,
Kiu Tuita,140+,Open,,M,B,Tonga,317.5,,,,317.5,Single-ply,G,
Mark Ned,140+,Open,,M,B,USA,272.5,,,,272.5,Multi-ply,1,
William Baker,140+,Open,,M,B,Canada,170,,,,170,Multi-ply,2,
A. Gruver,110,Teen 18-19,18-19,M,B,USA,147.5,,,,147.5,Multi-ply,1,
Earl Heth,125,Teen 18-19,18-19,M,B,USA,215,,,,215,Multi-ply,1,
Chris Erhardt,125,Teen 18-19,18-19,M,B,USA,200,207.5,,,200,Multi-ply,2,
John McKanna,52,Teen 16-17,16-17,M,B,USA,137.5,,,,137.5,Multi-ply,1,
F. Bimbo,52,Teen 16-17,16-17,M,B,Philippines,65,,,,65,Multi-ply,2,
Willard Crossen III,67.5,Teen 16-17,16-17,M,B,USA,110,,,,110,Multi-ply,1,
Spencer Sequin,74,Teen 16-17,16-17,M,B,USA,142.5,,,,142.5,Multi-ply,1,
Keneke Ward,82.5,Teen 16-17,16-17,M,B,USA,115,,,,115,Multi-ply,1,
Adrian Larsen,100,Teen 16-17,16-17,M,B,USA,187.5,,,,187.5,Multi-ply,1,
Barry Kunkel,60,Teen 18-19,18-19,M,B,USA,125,,,,125,Multi-ply,1,
Joe Luther,75,Teen 18-19,18-19,M,B,USA,185,,,,185,Multi-ply,1,
D. Foster,75,Teen 18-19,18-19,M,B,Canada,137.5,,,,137.5,Multi-ply,2,
Scott Schwandt,75,Teen 18-19,18-19,M,B,USA,132.5,,,,132.5,Multi-ply,3,
Joe Bruno,82.5,Teen 18-19,18-19,M,B,USA,177.5,,,,177.5,Multi-ply,1,
J. Jones,82.5,Teen 18-19,18-19,M,B,USA,145,,,,145,Multi-ply,2,
Liza Bimbo,48,Teen 14-15,14-15,F,B,USA,42.5,,,,42.5,Multi-ply,1,
Christie Hansen,60,Teen 16-17,16-17,F,B,USA,,,,,,Multi-ply,DQ,
A. Schilt,60,Teen 16-17,16-17,F,B,USA,57.5,,,,57.5,Multi-ply,1,
Rosie Yanikyan,82.5,Teen 16-17,16-17,F,B,Canada,62.5,,,,62.5,Multi-ply,1,
Lynelle Brode,90+,Teen 16-17,16-17,F,B,USA,82.5,85,,,82.5,Multi-ply,1,
Mary Bimbo,52,Teen 18-19,18-19,F,B,USA,35,,,,35,Multi-ply,1,
P. Hansen,60,Teen 18-19,18-19,F,B,USA,50,,,,50,Multi-ply,1,
Stephanie Guffie,67.5,Teen 18-19,18-19,F,B,USA,60,,,,60,Multi-ply,1,
Jillian Bruno,82.5,Teen 18-19,18-19,F,B,USA,47.5,,,,47.5,Multi-ply,1,
M. VanZee,67.5,Special Olympics,,M,B,USA,70,,,,70,Multi-ply,1,
L. Nelson,75,Special Olympics,,M,B,USA,80,,,,80,Multi-ply,1,
K. Luce,75,Special Olympics,,M,B,USA,27.5,,,,27.5,Multi-ply,2,
David Anderson #6,82.5,Special Olympics,,M,B,USA,100,,,,100,Multi-ply,1,
J. Leighton,90,Special Olympics,,M,B,USA,60,,,,60,Multi-ply,1,
J. Wood,110,Special Olympics,,M,B,USA,105,,,,105,Multi-ply,1,
B. Adams,125,Special Olympics,,M,B,USA,70,,,,70,Multi-ply,1,
R. Williams,125,Special Olympics,,M,B,USA,,,,,,Multi-ply,DQ,
M. Dougher,60,Law Masters 40-44,40-44,F,B,USA,47.5,50,,,47.5,Multi-ply,1,
Rae Ballard,67.5,Law Masters 45-49,45-49,F,B,USA,72.5,,,,72.5,Multi-ply,1,
Shelley Radcliffe,56,Law Submasters,40-999,F,B,USA,77.5,,,,77.5,Multi-ply,1,
Amy Hughes,60,Law Submasters,40-999,F,B,USA,97.5,,,,97.5,Multi-ply,1,
Carla Tupou,67.5,Law Submasters,40-999,F,B,USA,87.5,,,,87.5,Multi-ply,1,
R. Wilson,67.5,Law Submasters,40-999,F,B,USA,82.5,,,,82.5,Multi-ply,2,
Jeannette Isaacson,82.5,Law Submasters,40-999,F,B,USA,105,,,,105,Multi-ply,1,
Sabrina Paolo,90,Law Submasters,35-39,F,B,USA,87.5,,,,87.5,Multi-ply,1,
K. Guffie,60,Juniors 20-23,20-23,F,B,USA,40,,,,40,Multi-ply,1,
Carla Tupou,67.5,Juniors 20-23,20-23,F,B,USA,87.5,,,,87.5,Multi-ply,1,
S. Warner,48,Submasters 35-39,35-39,F,B,USA,47.5,,,,47.5,Multi-ply,1,
C. Pfeifer,60,Submasters 35-39,35-39,F,B,USA,40,,,,40,Multi-ply,1,
R. Wilson,67.5,Submasters 35-39,35-39,F,B,USA,82.5,,,,82.5,Multi-ply,1,
JoAnn Bauer,67.5,Submasters 35-39,35-39,F,B,USA,75,,,,75,Multi-ply,1,
Ellen Shanley,75,Submasters 35-39,35-39,F,B,USA,102.5,,,,102.5,Multi-ply,1,
Amy Johnston,90,Submasters 35-39,35-39,F,B,USA,100,,,,100,Multi-ply,1,
Christine Moorman,48,Open,,F,B,USA,77.5,,,,77.5,Multi-ply,1,
S. Warner,48,Open,,F,B,USA,47.5,,,,47.5,Multi-ply,2,
Tonya Whitlock,52,Open,,F,B,USA,55,,,,55,Multi-ply,1,
B. Moore #7,52,Open,,F,B,USA,47.5,,,,47.5,Multi-ply,2,
M. Dougher,60,Masters 40-44,40-44,F,B,USA,47.5,50,,,47.5,Multi-ply,1,
D. Johnson,56,Masters 45-49,45-49,F,B,USA,62.5,,,,62.5,Multi-ply,1,
Janey May,60,Masters 45-49,45-49,F,B,USA,57.5,,,,57.5,Multi-ply,1,
Patti Eldridge,67.5,Masters 45-49,45-49,F,B,Canada,95,,,,95,Multi-ply,1,45
Rae Ballard,67.5,Masters 45-49,45-49,F,B,USA,72.5,,,,72.5,Multi-ply,2,
Claire Ashton-Heckathorn,82.5,Masters 45-49,45-49,F,B,USA,65,,,,65,Multi-ply,1,
Leslie Miller,90+,Masters 45-49,45-49,F,B,USA,110,,,,110,Multi-ply,1,
G. Camp,56,Masters 50-54,50-54,F,B,USA,57.5,,,,57.5,Multi-ply,1,
Jo Walker,60,Masters 50-54,50-54,F,B,USA,57.5,,,,57.5,Multi-ply,1,
Lovina Rebman,60,Masters 60-64,60-64,F,B,USA,45,,,,45,Multi-ply,1,62
Gloria Tomlin,60,Masters 70-74,70-74,F,B,USA,37.5,,,,37.5,Multi-ply,1,74
