Name,WeightClassKg,Division,Best3SquatKg,Best3BenchKg,Best3DeadliftKg,TotalKg,Sex,Event,Equipment,Place,Team
Alan Ezzell,100,M-M1,59.87,59.87,99.79,219.54,M,SBD,Single-ply,1,
Mike Lohman,110,M-M2,59.87,59.87,99.79,219.54,M,SBD,Single-ply,1,
